{
  "$schema": "http://json-schema.org/draft-07/schema#",
  "$id": "http://api.minerva.bambinito.co/auth.schema.json",
  "description": "Login or Register a user",
  "type": "object",
  "additionalProperties": false,
  "properties": {
    "email": {
      "$id": "#/properties/email",
      "type": "string",
      "format": "email",
      "description": "The user's email."
    },
    "password": {
      "$id": "#/properties/password",
      "type": "string",
      "description": "The user's password."
    },
    "type": {
      "$id": "#/properties/type",
      "type": "string",
      "description": "The user's type."
    }
  },
  "required": ["email", "password"]
}
